Nr,frühereKreditwürdigkeit,verschuldung,sicherheit,einkommen,zielattribut
1,Schlecht,Stark,Keine,0-15,Hoch
2,Unbekannt,Stark,Keine,15-35,Hoch
3,Unbekannt,Gering,Keine,15-35,Mittel
4,Unbekannt,Gering,Keine,0-15,Hoch
5,Unbekannt,Gering,Keine,größer 35,Niedrig
6,Unbekannt,Gering,Angemessen,größer 35,Niedrig
7,Schlecht,Gering,Keine,0-15,Hoch
8,Schlecht,Gering,Angemessen,größer 35,Mittel
9,Gut,Gering,Keine,größer 35,Niedrig
10,Gut,Stark,Angemessen,größer 35,Niedrig
11,Gut,Stark,Keine,0-15,Hoch
12,Gut,Stark,Keine,15-35,Mittel
13,Gut,Stark,Keine,größer 35,Niedrig
14,Schlecht,Stark,Keine,15-35,Hoch
